<?xml version="1.0" encoding="utf-8"?>
<!DOCTYPE html PUBLIC "-//W3C//DTD XHTML 1.0 Strict//EN"
    "http://www.w3.org/TR/xhtml1/DTD/xhtml1-strict.dtd">
<html xmlns="http://www.w3.org/1999/xhtml">
<head>
<meta name="generator"  content="lshw-B.02.17" />
<style type="text/css">
  .first {font-weight: bold; margin-left: none; padding-right: 1em;vertical-align: top; }
  .second {padding-left: 1em; width: 100%; vertical-align: center; }
  .id {font-family: monospace;}
  .indented {margin-left: 2em; border-left: dotted thin #dde; padding-bottom: 1em; }
  .node {border: solid thin #ffcc66; padding: 1em; background: #ffffcc; }
  .node-unclaimed {border: dotted thin #c3c3c3; padding: 1em; background: #fafafa; color: red; }
  .node-disabled {border: solid thin #f55; padding: 1em; background: #fee; color: gray; }
</style>
<title>daniel-hp-240-g6-notebook-pc</title>
</head>
<body>
<div class="indented">
<table width="100%" class="node" summary="attributes of daniel-hp-240-g6-notebook-pc">
 <thead><tr><td class="first">id:</td><td class="second"><div class="id">daniel-hp-240-g6-notebook-pc</div></td></tr></thead>
 <tbody>
    <tr><td class="first">descripción: </td><td class="second">Computer</td></tr>
    <tr><td class="first">anchura: </td><td class="second">64 bits</td></tr>
    <tr><td class="first">capacidades: </td><td class="second"><dfn title="procesos 32-bit">vsyscall32</dfn> </td></tr>
 </tbody></table></div>
<div class="indented">
        <div class="indented">
    <table width="100%" class="node" summary="attributes of core">
 <thead><tr><td class="first">id:</td><td class="second"><div class="id">core</div></td></tr></thead>
 <tbody>
       <tr><td class="first">descripción: </td><td class="second">Motherboard</td></tr>
       <tr><td class="first">id físico: </td><td class="second"><div class="id">0</div></td></tr>
 </tbody>    </table></div>
<div class="indented">
              <div class="indented">
       <table width="100%" class="node" summary="attributes of memory">
 <thead><tr><td class="first">id:</td><td class="second"><div class="id">memory</div></td></tr></thead>
 <tbody>
          <tr><td class="first">descripción: </td><td class="second">Memoria de sistema</td></tr>
          <tr><td class="first">id físico: </td><td class="second"><div class="id">0</div></td></tr>
          <tr><td class="first">tamaño: </td><td class="second">3850MiB</td></tr>
 </tbody>       </table></div>
       </div>
<div class="indented">
              <div class="indented">
       <table width="100%" class="node" summary="attributes of cpu">
 <thead><tr><td class="first">id:</td><td class="second"><div class="id">cpu</div></td></tr></thead>
 <tbody>
          <tr><td class="first">producto: </td><td class="second">Intel(R) Celeron(R) CPU  N3060  @ 1.60GHz</td></tr>
          <tr><td class="first">fabricante: </td><td class="second">Intel Corp.</td></tr>
          <tr><td class="first">id físico: </td><td class="second"><div class="id">1</div></td></tr>
          <tr><td class="first">información del bus: </td><td class="second"><div class="id">cpu@0</div></td></tr>
          <tr><td class="first">tamaño: </td><td class="second">829MHz</td></tr>
          <tr><td class="first">capacidad: </td><td class="second">2480MHz</td></tr>
          <tr><td class="first">anchura: </td><td class="second">64 bits</td></tr>
          <tr><td class="first">capacidades: </td><td class="second"><dfn title="mathematical co-processor">fpu</dfn> <dfn title="FPU exceptions reporting">fpu_exception</dfn> <dfn title="">wp</dfn> <dfn title="virtual mode extensions">vme</dfn> <dfn title="debugging extensions">de</dfn> <dfn title="page size extensions">pse</dfn> <dfn title="time stamp counter">tsc</dfn> <dfn title="model-specific registers">msr</dfn> <dfn title="4GB+ memory addressing (Physical Address Extension)">pae</dfn> <dfn title="machine check exceptions">mce</dfn> <dfn title="compare and exchange 8-byte">cx8</dfn> <dfn title="on-chip advanced programmable interrupt controller (APIC)">apic</dfn> <dfn title="fast system calls">sep</dfn> <dfn title="memory type range registers">mtrr</dfn> <dfn title="page global enable">pge</dfn> <dfn title="machine check architecture">mca</dfn> <dfn title="conditional move instruction">cmov</dfn> <dfn title="page attribute table">pat</dfn> <dfn title="36-bit page size extensions">pse36</dfn> <dfn title="">clflush</dfn> <dfn title="debug trace and EMON store MSRs">dts</dfn> <dfn title="thermal control (ACPI)">acpi</dfn> <dfn title="multimedia extensions (MMX)">mmx</dfn> <dfn title="fast floating point save/restore">fxsr</dfn> <dfn title="streaming SIMD extensions (SSE)">sse</dfn> <dfn title="streaming SIMD extensions (SSE2)">sse2</dfn> <dfn title="self-snoop">ss</dfn> <dfn title="HyperThreading">ht</dfn> <dfn title="thermal interrupt and status">tm</dfn> <dfn title="pending break event">pbe</dfn> <dfn title="fast system calls">syscall</dfn> <dfn title="no-execute bit (NX)">nx</dfn> <dfn title="">rdtscp</dfn> <dfn title="64bits extensions (x86-64)">x86-64</dfn> <dfn title="">constant_tsc</dfn> <dfn title="">arch_perfmon</dfn> <dfn title="">pebs</dfn> <dfn title="">bts</dfn> <dfn title="">rep_good</dfn> <dfn title="">nopl</dfn> <dfn title="">xtopology</dfn> <dfn title="">tsc_reliable</dfn> <dfn title="">nonstop_tsc</dfn> <dfn title="">cpuid</dfn> <dfn title="">aperfmperf</dfn> <dfn title="">tsc_known_freq</dfn> <dfn title="">pni</dfn> <dfn title="">pclmulqdq</dfn> <dfn title="">dtes64</dfn> <dfn title="">monitor</dfn> <dfn title="">ds_cpl</dfn> <dfn title="">vmx</dfn> <dfn title="">est</dfn> <dfn title="">tm2</dfn> <dfn title="">ssse3</dfn> <dfn title="">cx16</dfn> <dfn title="">xtpr</dfn> <dfn title="">pdcm</dfn> <dfn title="">sse4_1</dfn> <dfn title="">sse4_2</dfn> <dfn title="">movbe</dfn> <dfn title="">popcnt</dfn> <dfn title="">tsc_deadline_timer</dfn> <dfn title="">aes</dfn> <dfn title="">rdrand</dfn> <dfn title="">lahf_lm</dfn> <dfn title="">3dnowprefetch</dfn> <dfn title="">epb</dfn> <dfn title="">pti</dfn> <dfn title="">ibrs</dfn> <dfn title="">ibpb</dfn> <dfn title="">stibp</dfn> <dfn title="">tpr_shadow</dfn> <dfn title="">vnmi</dfn> <dfn title="">flexpriority</dfn> <dfn title="">ept</dfn> <dfn title="">vpid</dfn> <dfn title="">tsc_adjust</dfn> <dfn title="">smep</dfn> <dfn title="">erms</dfn> <dfn title="">dtherm</dfn> <dfn title="">ida</dfn> <dfn title="">arat</dfn> <dfn title="CPU Frequency scaling">cpufreq</dfn> </td></tr>
 </tbody>       </table></div>
       </div>
<div class="indented">
              <div class="indented">
       <table width="100%" class="node" summary="attributes of pci">
 <thead><tr><td class="first">id:</td><td class="second"><div class="id">pci</div></td></tr></thead>
 <tbody>
          <tr><td class="first">descripción: </td><td class="second">Host bridge</td></tr>
          <tr><td class="first">producto: </td><td class="second">Intel Corporation</td></tr>
          <tr><td class="first">fabricante: </td><td class="second">Intel Corporation</td></tr>
          <tr><td class="first">id físico: </td><td class="second"><div class="id">100</div></td></tr>
          <tr><td class="first">información del bus: </td><td class="second"><div class="id">pci@0000:00:00.0</div></td></tr>
          <tr><td class="first">versión: </td><td class="second">35</td></tr>
          <tr><td class="first">anchura: </td><td class="second">32 bits</td></tr>
          <tr><td class="first">reloj: </td><td class="second">33MHz</td></tr>
          <tr><td class="first">configuración:</td><td class="second"><table summary="configuración de pci"><tr><td class="sub-first"> driver</td><td>=</td><td>iosf_mbi_pci</td></tr></table></td></tr>
          <tr><td class="first">recursos:</td><td class="second"><table summary="recursos de pci"><tr><td class="sub-first"> irq</td><td>:</td><td>0</td></tr></table></td></tr>
 </tbody>       </table></div>
<div class="indented">
                    <div class="indented">
          <table width="100%" class="node" summary="attributes of display">
 <thead><tr><td class="first">id:</td><td class="second"><div class="id">display</div></td></tr></thead>
 <tbody>
             <tr><td class="first">descripción: </td><td class="second">VGA compatible controller</td></tr>
             <tr><td class="first">producto: </td><td class="second">Intel Corporation</td></tr>
             <tr><td class="first">fabricante: </td><td class="second">Intel Corporation</td></tr>
             <tr><td class="first">id físico: </td><td class="second"><div class="id">2</div></td></tr>
             <tr><td class="first">información del bus: </td><td class="second"><div class="id">pci@0000:00:02.0</div></td></tr>
             <tr><td class="first">versión: </td><td class="second">35</td></tr>
             <tr><td class="first">anchura: </td><td class="second">64 bits</td></tr>
             <tr><td class="first">reloj: </td><td class="second">33MHz</td></tr>
             <tr><td class="first">capacidades: </td><td class="second"><dfn title="Power Management">pm</dfn> <dfn title="Message Signalled Interrupts">msi</dfn> <dfn title="">vga_controller</dfn> <dfn title="bus mastering">bus_master</dfn> <dfn title="PCI capabilities listing">cap_list</dfn> <dfn title="extension ROM">rom</dfn> </td></tr>
             <tr><td class="first">configuración:</td><td class="second"><table summary="configuración de display"><tr><td class="sub-first"> driver</td><td>=</td><td>i915</td></tr><tr><td class="sub-first"> latency</td><td>=</td><td>0</td></tr></table></td></tr>
             <tr><td class="first">recursos:</td><td class="second"><table summary="recursos de display"><tr><td class="sub-first"> irq</td><td>:</td><td>118</td></tr><tr><td class="sub-first"> memoria</td><td>:</td><td>90000000-90ffffff</td></tr><tr><td class="sub-first"> memoria</td><td>:</td><td>80000000-8fffffff</td></tr><tr><td class="sub-first"> ioport</td><td>:</td><td>3000(size=64)</td></tr><tr><td class="sub-first"> memoria</td><td>:</td><td>c0000-dffff</td></tr></table></td></tr>
 </tbody>          </table></div>
          </div>
<div class="indented">
                    <div class="indented">
          <table width="100%" class="node" summary="attributes of generic:0">
 <thead><tr><td class="first">id:</td><td class="second"><div class="id">generic:0</div></td></tr></thead>
 <tbody>
             <tr><td class="first">descripción: </td><td class="second">Signal processing controller</td></tr>
             <tr><td class="first">producto: </td><td class="second">Intel Corporation</td></tr>
             <tr><td class="first">fabricante: </td><td class="second">Intel Corporation</td></tr>
             <tr><td class="first">id físico: </td><td class="second"><div class="id">b</div></td></tr>
             <tr><td class="first">información del bus: </td><td class="second"><div class="id">pci@0000:00:0b.0</div></td></tr>
             <tr><td class="first">versión: </td><td class="second">35</td></tr>
             <tr><td class="first">anchura: </td><td class="second">64 bits</td></tr>
             <tr><td class="first">reloj: </td><td class="second">33MHz</td></tr>
             <tr><td class="first">capacidades: </td><td class="second"><dfn title="Message Signalled Interrupts">msi</dfn> <dfn title="Power Management">pm</dfn> <dfn title="PCI capabilities listing">cap_list</dfn> </td></tr>
             <tr><td class="first">configuración:</td><td class="second"><table summary="configuración de generic:0"><tr><td class="sub-first"> driver</td><td>=</td><td>proc_thermal</td></tr><tr><td class="sub-first"> latency</td><td>=</td><td>0</td></tr></table></td></tr>
             <tr><td class="first">recursos:</td><td class="second"><table summary="recursos de generic:0"><tr><td class="sub-first"> irq</td><td>:</td><td>119</td></tr><tr><td class="sub-first"> memoria</td><td>:</td><td>91414000-91414fff</td></tr></table></td></tr>
 </tbody>          </table></div>
          </div>
<div class="indented">
                    <div class="indented">
          <table width="100%" class="node" summary="attributes of storage">
 <thead><tr><td class="first">id:</td><td class="second"><div class="id">storage</div></td></tr></thead>
 <tbody>
             <tr><td class="first">descripción: </td><td class="second">SATA controller</td></tr>
             <tr><td class="first">producto: </td><td class="second">Intel Corporation</td></tr>
             <tr><td class="first">fabricante: </td><td class="second">Intel Corporation</td></tr>
             <tr><td class="first">id físico: </td><td class="second"><div class="id">13</div></td></tr>
             <tr><td class="first">información del bus: </td><td class="second"><div class="id">pci@0000:00:13.0</div></td></tr>
             <tr><td class="first">versión: </td><td class="second">35</td></tr>
             <tr><td class="first">anchura: </td><td class="second">32 bits</td></tr>
             <tr><td class="first">reloj: </td><td class="second">66MHz</td></tr>
             <tr><td class="first">capacidades: </td><td class="second"><dfn title="">storage</dfn> <dfn title="Message Signalled Interrupts">msi</dfn> <dfn title="Power Management">pm</dfn> <dfn title="">ahci_1.0</dfn> <dfn title="bus mastering">bus_master</dfn> <dfn title="PCI capabilities listing">cap_list</dfn> </td></tr>
             <tr><td class="first">configuración:</td><td class="second"><table summary="configuración de storage"><tr><td class="sub-first"> driver</td><td>=</td><td>ahci</td></tr><tr><td class="sub-first"> latency</td><td>=</td><td>0</td></tr></table></td></tr>
             <tr><td class="first">recursos:</td><td class="second"><table summary="recursos de storage"><tr><td class="sub-first"> irq</td><td>:</td><td>116</td></tr><tr><td class="sub-first"> ioport</td><td>:</td><td>3060(size=32)</td></tr><tr><td class="sub-first"> memoria</td><td>:</td><td>91415000-914157ff</td></tr></table></td></tr>
 </tbody>          </table></div>
          </div>
<div class="indented">
                    <div class="indented">
          <table width="100%" class="node" summary="attributes of usb">
 <thead><tr><td class="first">id:</td><td class="second"><div class="id">usb</div></td></tr></thead>
 <tbody>
             <tr><td class="first">descripción: </td><td class="second">USB controller</td></tr>
             <tr><td class="first">producto: </td><td class="second">Intel Corporation</td></tr>
             <tr><td class="first">fabricante: </td><td class="second">Intel Corporation</td></tr>
             <tr><td class="first">id físico: </td><td class="second"><div class="id">14</div></td></tr>
             <tr><td class="first">información del bus: </td><td class="second"><div class="id">pci@0000:00:14.0</div></td></tr>
             <tr><td class="first">versión: </td><td class="second">35</td></tr>
             <tr><td class="first">anchura: </td><td class="second">64 bits</td></tr>
             <tr><td class="first">reloj: </td><td class="second">33MHz</td></tr>
             <tr><td class="first">capacidades: </td><td class="second"><dfn title="Power Management">pm</dfn> <dfn title="Message Signalled Interrupts">msi</dfn> <dfn title="">xhci</dfn> <dfn title="bus mastering">bus_master</dfn> <dfn title="PCI capabilities listing">cap_list</dfn> </td></tr>
             <tr><td class="first">configuración:</td><td class="second"><table summary="configuración de usb"><tr><td class="sub-first"> driver</td><td>=</td><td>xhci_hcd</td></tr><tr><td class="sub-first"> latency</td><td>=</td><td>0</td></tr></table></td></tr>
             <tr><td class="first">recursos:</td><td class="second"><table summary="recursos de usb"><tr><td class="sub-first"> irq</td><td>:</td><td>115</td></tr><tr><td class="sub-first"> memoria</td><td>:</td><td>91400000-9140ffff</td></tr></table></td></tr>
 </tbody>          </table></div>
          </div>
<div class="indented">
                    <div class="indented">
          <table width="100%" class="node" summary="attributes of generic:1">
 <thead><tr><td class="first">id:</td><td class="second"><div class="id">generic:1</div></td></tr></thead>
 <tbody>
             <tr><td class="first">descripción: </td><td class="second">Encryption controller</td></tr>
             <tr><td class="first">producto: </td><td class="second">Intel Corporation</td></tr>
             <tr><td class="first">fabricante: </td><td class="second">Intel Corporation</td></tr>
             <tr><td class="first">id físico: </td><td class="second"><div class="id">1a</div></td></tr>
             <tr><td class="first">información del bus: </td><td class="second"><div class="id">pci@0000:00:1a.0</div></td></tr>
             <tr><td class="first">versión: </td><td class="second">35</td></tr>
             <tr><td class="first">anchura: </td><td class="second">32 bits</td></tr>
             <tr><td class="first">reloj: </td><td class="second">33MHz</td></tr>
             <tr><td class="first">capacidades: </td><td class="second"><dfn title="Power Management">pm</dfn> <dfn title="Message Signalled Interrupts">msi</dfn> <dfn title="bus mastering">bus_master</dfn> <dfn title="PCI capabilities listing">cap_list</dfn> </td></tr>
             <tr><td class="first">configuración:</td><td class="second"><table summary="configuración de generic:1"><tr><td class="sub-first"> driver</td><td>=</td><td>mei_txe</td></tr><tr><td class="sub-first"> latency</td><td>=</td><td>0</td></tr></table></td></tr>
             <tr><td class="first">recursos:</td><td class="second"><table summary="recursos de generic:1"><tr><td class="sub-first"> irq</td><td>:</td><td>120</td></tr><tr><td class="sub-first"> memoria</td><td>:</td><td>91300000-913fffff</td></tr><tr><td class="sub-first"> memoria</td><td>:</td><td>91200000-912fffff</td></tr></table></td></tr>
 </tbody>          </table></div>
          </div>
<div class="indented">
                    <div class="indented">
          <table width="100%" class="node" summary="attributes of multimedia">
 <thead><tr><td class="first">id:</td><td class="second"><div class="id">multimedia</div></td></tr></thead>
 <tbody>
             <tr><td class="first">descripción: </td><td class="second">Audio device</td></tr>
             <tr><td class="first">producto: </td><td class="second">Intel Corporation</td></tr>
             <tr><td class="first">fabricante: </td><td class="second">Intel Corporation</td></tr>
             <tr><td class="first">id físico: </td><td class="second"><div class="id">1b</div></td></tr>
             <tr><td class="first">información del bus: </td><td class="second"><div class="id">pci@0000:00:1b.0</div></td></tr>
             <tr><td class="first">versión: </td><td class="second">35</td></tr>
             <tr><td class="first">anchura: </td><td class="second">64 bits</td></tr>
             <tr><td class="first">reloj: </td><td class="second">33MHz</td></tr>
             <tr><td class="first">capacidades: </td><td class="second"><dfn title="Power Management">pm</dfn> <dfn title="Message Signalled Interrupts">msi</dfn> <dfn title="bus mastering">bus_master</dfn> <dfn title="PCI capabilities listing">cap_list</dfn> </td></tr>
             <tr><td class="first">configuración:</td><td class="second"><table summary="configuración de multimedia"><tr><td class="sub-first"> driver</td><td>=</td><td>snd_hda_intel</td></tr><tr><td class="sub-first"> latency</td><td>=</td><td>0</td></tr></table></td></tr>
             <tr><td class="first">recursos:</td><td class="second"><table summary="recursos de multimedia"><tr><td class="sub-first"> irq</td><td>:</td><td>122</td></tr><tr><td class="sub-first"> memoria</td><td>:</td><td>91410000-91413fff</td></tr></table></td></tr>
 </tbody>          </table></div>
          </div>
<div class="indented">
                    <div class="indented">
          <table width="100%" class="node" summary="attributes of pci:0">
 <thead><tr><td class="first">id:</td><td class="second"><div class="id">pci:0</div></td></tr></thead>
 <tbody>
             <tr><td class="first">descripción: </td><td class="second">PCI bridge</td></tr>
             <tr><td class="first">producto: </td><td class="second">Intel Corporation</td></tr>
             <tr><td class="first">fabricante: </td><td class="second">Intel Corporation</td></tr>
             <tr><td class="first">id físico: </td><td class="second"><div class="id">1c</div></td></tr>
             <tr><td class="first">información del bus: </td><td class="second"><div class="id">pci@0000:00:1c.0</div></td></tr>
             <tr><td class="first">versión: </td><td class="second">35</td></tr>
             <tr><td class="first">anchura: </td><td class="second">32 bits</td></tr>
             <tr><td class="first">reloj: </td><td class="second">33MHz</td></tr>
             <tr><td class="first">capacidades: </td><td class="second"><dfn title="">pci</dfn> <dfn title="PCI Express">pciexpress</dfn> <dfn title="Message Signalled Interrupts">msi</dfn> <dfn title="Power Management">pm</dfn> <dfn title="">normal_decode</dfn> <dfn title="bus mastering">bus_master</dfn> <dfn title="PCI capabilities listing">cap_list</dfn> </td></tr>
             <tr><td class="first">configuración:</td><td class="second"><table summary="configuración de pci:0"><tr><td class="sub-first"> driver</td><td>=</td><td>pcieport</td></tr></table></td></tr>
             <tr><td class="first">recursos:</td><td class="second"><table summary="recursos de pci:0"><tr><td class="sub-first"> irq</td><td>:</td><td>16</td></tr><tr><td class="sub-first"> ioport</td><td>:</td><td>2000(size=4096)</td></tr><tr><td class="sub-first"> memoria</td><td>:</td><td>91100000-911fffff</td></tr><tr><td class="sub-first"> ioport</td><td>:</td><td>91500000(size=2097152)</td></tr></table></td></tr>
 </tbody>          </table></div>
<div class="indented">
                          <div class="indented">
             <table width="100%" class="node" summary="attributes of network">
 <thead><tr><td class="first">id:</td><td class="second"><div class="id">network</div></td></tr></thead>
 <tbody>
                <tr><td class="first">descripción: </td><td class="second">Ethernet interface</td></tr>
                <tr><td class="first">producto: </td><td class="second">RTL8111/8168/8411 PCI Express Gigabit Ethernet Controller</td></tr>
                <tr><td class="first">fabricante: </td><td class="second">Realtek Semiconductor Co., Ltd.</td></tr>
                <tr><td class="first">id físico: </td><td class="second"><div class="id">0</div></td></tr>
                <tr><td class="first">información del bus: </td><td class="second"><div class="id">pci@0000:01:00.0</div></td></tr>
                <tr><td class="first">nombre lógico: </td><td class="second"><div class="id">eno1</div></td></tr>
                <tr><td class="first">versión: </td><td class="second">15</td></tr>
                <tr><td class="first">serie: </td><td class="second">10:e7:c6:ee:62:b2</td></tr>
                <tr><td class="first">tamaño: </td><td class="second">100Mbit/s</td></tr>
                <tr><td class="first">capacidad: </td><td class="second">1Gbit/s</td></tr>
                <tr><td class="first">anchura: </td><td class="second">64 bits</td></tr>
                <tr><td class="first">reloj: </td><td class="second">33MHz</td></tr>
                <tr><td class="first">capacidades: </td><td class="second"><dfn title="Power Management">pm</dfn> <dfn title="Message Signalled Interrupts">msi</dfn> <dfn title="PCI Express">pciexpress</dfn> <dfn title="MSI-X">msix</dfn> <dfn title="bus mastering">bus_master</dfn> <dfn title="PCI capabilities listing">cap_list</dfn> <dfn title="">ethernet</dfn> <dfn title="Interfaz fsica">physical</dfn> <dfn title="par trenzado">tp</dfn> <dfn title="Media Independent Interface">mii</dfn> <dfn title="10Mbit/s">10bt</dfn> <dfn title="10Mbit/s (bidireccional)">10bt-fd</dfn> <dfn title="100Mbit/s">100bt</dfn> <dfn title="100Mbit/s  (bidireccional)">100bt-fd</dfn> <dfn title="1Gbit/s">1000bt</dfn> <dfn title="1Gbit/s (bidireccional)">1000bt-fd</dfn> <dfn title="Autonegociacin">autonegotiation</dfn> </td></tr>
                <tr><td class="first">configuración:</td><td class="second"><table summary="configuración de network"><tr><td class="sub-first"> autonegotiation</td><td>=</td><td>on</td></tr><tr><td class="sub-first"> broadcast</td><td>=</td><td>yes</td></tr><tr><td class="sub-first"> driver</td><td>=</td><td>r8169</td></tr><tr><td class="sub-first"> driverversion</td><td>=</td><td>2.3LK-NAPI</td></tr><tr><td class="sub-first"> duplex</td><td>=</td><td>full</td></tr><tr><td class="sub-first"> firmware</td><td>=</td><td>rtl8168h-2_0.0.2 02/26/15</td></tr><tr><td class="sub-first"> ip</td><td>=</td><td>192.168.23.88</td></tr><tr><td class="sub-first"> latency</td><td>=</td><td>0</td></tr><tr><td class="sub-first"> link</td><td>=</td><td>yes</td></tr><tr><td class="sub-first"> multicast</td><td>=</td><td>yes</td></tr><tr><td class="sub-first"> port</td><td>=</td><td>MII</td></tr><tr><td class="sub-first"> speed</td><td>=</td><td>100Mbit/s</td></tr></table></td></tr>
                <tr><td class="first">recursos:</td><td class="second"><table summary="recursos de network"><tr><td class="sub-first"> irq</td><td>:</td><td>16</td></tr><tr><td class="sub-first"> ioport</td><td>:</td><td>2000(size=256)</td></tr><tr><td class="sub-first"> memoria</td><td>:</td><td>91104000-91104fff</td></tr><tr><td class="sub-first"> memoria</td><td>:</td><td>91100000-91103fff</td></tr></table></td></tr>
 </tbody>             </table></div>
             </div>
          </div>
<div class="indented">
                    <div class="indented">
          <table width="100%" class="node" summary="attributes of pci:1">
 <thead><tr><td class="first">id:</td><td class="second"><div class="id">pci:1</div></td></tr></thead>
 <tbody>
             <tr><td class="first">descripción: </td><td class="second">PCI bridge</td></tr>
             <tr><td class="first">producto: </td><td class="second">Intel Corporation</td></tr>
             <tr><td class="first">fabricante: </td><td class="second">Intel Corporation</td></tr>
             <tr><td class="first">id físico: </td><td class="second"><div class="id">1c.3</div></td></tr>
             <tr><td class="first">información del bus: </td><td class="second"><div class="id">pci@0000:00:1c.3</div></td></tr>
             <tr><td class="first">versión: </td><td class="second">35</td></tr>
             <tr><td class="first">anchura: </td><td class="second">32 bits</td></tr>
             <tr><td class="first">reloj: </td><td class="second">33MHz</td></tr>
             <tr><td class="first">capacidades: </td><td class="second"><dfn title="">pci</dfn> <dfn title="PCI Express">pciexpress</dfn> <dfn title="Message Signalled Interrupts">msi</dfn> <dfn title="Power Management">pm</dfn> <dfn title="">normal_decode</dfn> <dfn title="bus mastering">bus_master</dfn> <dfn title="PCI capabilities listing">cap_list</dfn> </td></tr>
             <tr><td class="first">configuración:</td><td class="second"><table summary="configuración de pci:1"><tr><td class="sub-first"> driver</td><td>=</td><td>pcieport</td></tr></table></td></tr>
             <tr><td class="first">recursos:</td><td class="second"><table summary="recursos de pci:1"><tr><td class="sub-first"> irq</td><td>:</td><td>19</td></tr><tr><td class="sub-first"> ioport</td><td>:</td><td>1000(size=4096)</td></tr><tr><td class="sub-first"> memoria</td><td>:</td><td>91000000-910fffff</td></tr><tr><td class="sub-first"> ioport</td><td>:</td><td>91700000(size=2097152)</td></tr></table></td></tr>
 </tbody>          </table></div>
<div class="indented">
                          <div class="indented">
             <table width="100%" class="node" summary="attributes of network">
 <thead><tr><td class="first">id:</td><td class="second"><div class="id">network</div></td></tr></thead>
 <tbody>
                <tr><td class="first">descripción: </td><td class="second">Interfaz inalámbrica</td></tr>
                <tr><td class="first">producto: </td><td class="second">RTL8188EE Wireless Network Adapter</td></tr>
                <tr><td class="first">fabricante: </td><td class="second">Realtek Semiconductor Co., Ltd.</td></tr>
                <tr><td class="first">id físico: </td><td class="second"><div class="id">0</div></td></tr>
                <tr><td class="first">información del bus: </td><td class="second"><div class="id">pci@0000:02:00.0</div></td></tr>
                <tr><td class="first">nombre lógico: </td><td class="second"><div class="id">wlo1</div></td></tr>
                <tr><td class="first">versión: </td><td class="second">01</td></tr>
                <tr><td class="first">serie: </td><td class="second">5c:ea:1d:2c:54:02</td></tr>
                <tr><td class="first">anchura: </td><td class="second">64 bits</td></tr>
                <tr><td class="first">reloj: </td><td class="second">33MHz</td></tr>
                <tr><td class="first">capacidades: </td><td class="second"><dfn title="Power Management">pm</dfn> <dfn title="Message Signalled Interrupts">msi</dfn> <dfn title="PCI Express">pciexpress</dfn> <dfn title="bus mastering">bus_master</dfn> <dfn title="PCI capabilities listing">cap_list</dfn> <dfn title="">ethernet</dfn> <dfn title="Interfaz fsica">physical</dfn> <dfn title="LAN inalmbrica">wireless</dfn> </td></tr>
                <tr><td class="first">configuración:</td><td class="second"><table summary="configuración de network"><tr><td class="sub-first"> broadcast</td><td>=</td><td>yes</td></tr><tr><td class="sub-first"> driver</td><td>=</td><td>rtl8188ee</td></tr><tr><td class="sub-first"> driverversion</td><td>=</td><td>4.15.0-29-generic</td></tr><tr><td class="sub-first"> firmware</td><td>=</td><td>N/A</td></tr><tr><td class="sub-first"> latency</td><td>=</td><td>0</td></tr><tr><td class="sub-first"> link</td><td>=</td><td>no</td></tr><tr><td class="sub-first"> multicast</td><td>=</td><td>yes</td></tr><tr><td class="sub-first"> wireless</td><td>=</td><td>IEEE 802.11</td></tr></table></td></tr>
                <tr><td class="first">recursos:</td><td class="second"><table summary="recursos de network"><tr><td class="sub-first"> irq</td><td>:</td><td>123</td></tr><tr><td class="sub-first"> ioport</td><td>:</td><td>1000(size=256)</td></tr><tr><td class="sub-first"> memoria</td><td>:</td><td>91000000-91003fff</td></tr></table></td></tr>
 </tbody>             </table></div>
             </div>
          </div>
<div class="indented">
                    <div class="indented">
          <table width="100%" class="node" summary="attributes of isa">
 <thead><tr><td class="first">id:</td><td class="second"><div class="id">isa</div></td></tr></thead>
 <tbody>
             <tr><td class="first">descripción: </td><td class="second">ISA bridge</td></tr>
             <tr><td class="first">producto: </td><td class="second">Intel Corporation</td></tr>
             <tr><td class="first">fabricante: </td><td class="second">Intel Corporation</td></tr>
             <tr><td class="first">id físico: </td><td class="second"><div class="id">1f</div></td></tr>
             <tr><td class="first">información del bus: </td><td class="second"><div class="id">pci@0000:00:1f.0</div></td></tr>
             <tr><td class="first">versión: </td><td class="second">35</td></tr>
             <tr><td class="first">anchura: </td><td class="second">32 bits</td></tr>
             <tr><td class="first">reloj: </td><td class="second">33MHz</td></tr>
             <tr><td class="first">capacidades: </td><td class="second"><dfn title="">isa</dfn> <dfn title="bus mastering">bus_master</dfn> <dfn title="PCI capabilities listing">cap_list</dfn> </td></tr>
             <tr><td class="first">configuración:</td><td class="second"><table summary="configuración de isa"><tr><td class="sub-first"> driver</td><td>=</td><td>lpc_ich</td></tr><tr><td class="sub-first"> latency</td><td>=</td><td>0</td></tr></table></td></tr>
             <tr><td class="first">recursos:</td><td class="second"><table summary="recursos de isa"><tr><td class="sub-first"> irq</td><td>:</td><td>0</td></tr></table></td></tr>
 </tbody>          </table></div>
          </div>
<div class="indented">
                    <div class="indented">
          <table width="100%" class="node-unclaimed" summary="attributes of serial">
 <thead><tr><td class="first">id:</td><td class="second"><div class="id">serial</div></td></tr></thead>
 <tbody>
             <tr><td class="first">descripción: </td><td class="second">SMBus</td></tr>
             <tr><td class="first">producto: </td><td class="second">Intel Corporation</td></tr>
             <tr><td class="first">fabricante: </td><td class="second">Intel Corporation</td></tr>
             <tr><td class="first">id físico: </td><td class="second"><div class="id">1f.3</div></td></tr>
             <tr><td class="first">información del bus: </td><td class="second"><div class="id">pci@0000:00:1f.3</div></td></tr>
             <tr><td class="first">versión: </td><td class="second">35</td></tr>
             <tr><td class="first">anchura: </td><td class="second">32 bits</td></tr>
             <tr><td class="first">reloj: </td><td class="second">33MHz</td></tr>
             <tr><td class="first">capacidades: </td><td class="second"><dfn title="Power Management">pm</dfn> <dfn title="PCI capabilities listing">cap_list</dfn> </td></tr>
             <tr><td class="first">configuración:</td><td class="second"><table summary="configuración de serial"><tr><td class="sub-first"> latency</td><td>=</td><td>0</td></tr></table></td></tr>
             <tr><td class="first">recursos:</td><td class="second"><table summary="recursos de serial"><tr><td class="sub-first"> memoria</td><td>:</td><td>91416000-9141601f</td></tr><tr><td class="sub-first"> ioport</td><td>:</td><td>3040(size=32)</td></tr></table></td></tr>
 </tbody>          </table></div>
          </div>
       </div>
<div class="indented">
              <div class="indented">
       <table width="100%" class="node" summary="attributes of scsi">
 <thead><tr><td class="first">id:</td><td class="second"><div class="id">scsi</div></td></tr></thead>
 <tbody>
          <tr><td class="first">id físico: </td><td class="second"><div class="id">2</div></td></tr>
          <tr><td class="first">nombre lógico: </td><td class="second"><div class="id">scsi0</div></td></tr>
          <tr><td class="first">capacidades: </td><td class="second"><dfn title="Emulated device">emulated</dfn> </td></tr>
 </tbody>       </table></div>
<div class="indented">
                    <div class="indented">
          <table width="100%" class="node" summary="attributes of disk">
 <thead><tr><td class="first">id:</td><td class="second"><div class="id">disk</div></td></tr></thead>
 <tbody>
             <tr><td class="first">descripción: </td><td class="second">ATA Disk</td></tr>
             <tr><td class="first">producto: </td><td class="second">WDC WD5000LPCX-6</td></tr>
             <tr><td class="first">fabricante: </td><td class="second">Western Digital</td></tr>
             <tr><td class="first">id físico: </td><td class="second"><div class="id">0.0.0</div></td></tr>
             <tr><td class="first">información del bus: </td><td class="second"><div class="id">scsi@0:0.0.0</div></td></tr>
             <tr><td class="first">nombre lógico: </td><td class="second"><div class="id">/dev/sda</div></td></tr>
             <tr><td class="first">versión: </td><td class="second">1A01</td></tr>
             <tr><td class="first">serie: </td><td class="second">WD-WXJ1AC7P7VE9</td></tr>
             <tr><td class="first">tamaño: </td><td class="second">465GiB (500GB)</td></tr>
             <tr><td class="first">capacidades: </td><td class="second"><dfn title="GUID Partition Table version 1.00">gpt-1.00</dfn> <dfn title="Partitioned disk">partitioned</dfn> <dfn title="GUID partition table">partitioned:gpt</dfn> </td></tr>
             <tr><td class="first">configuración:</td><td class="second"><table summary="configuración de disk"><tr><td class="sub-first"> ansiversion</td><td>=</td><td>5</td></tr><tr><td class="sub-first"> guid</td><td>=</td><td>5ecdcebc-12d3-46f3-8b1e-2453c21351b1</td></tr><tr><td class="sub-first"> logicalsectorsize</td><td>=</td><td>512</td></tr><tr><td class="sub-first"> sectorsize</td><td>=</td><td>4096</td></tr></table></td></tr>
 </tbody>          </table></div>
<div class="indented">
                          <div class="indented">
             <table width="100%" class="node-unclaimed" summary="attributes of volume:0">
 <thead><tr><td class="first">id:</td><td class="second"><div class="id">volume:0</div></td></tr></thead>
 <tbody>
                <tr><td class="first">descripción: </td><td class="second">Windows FAT volumen</td></tr>
                <tr><td class="first">fabricante: </td><td class="second">MSDOS5.0</td></tr>
                <tr><td class="first">id físico: </td><td class="second"><div class="id">1</div></td></tr>
                <tr><td class="first">información del bus: </td><td class="second"><div class="id">scsi@0:0.0.0,1</div></td></tr>
                <tr><td class="first">versión: </td><td class="second">FAT32</td></tr>
                <tr><td class="first">serie: </td><td class="second">24a7-6159</td></tr>
                <tr><td class="first">tamaño: </td><td class="second">255MiB</td></tr>
                <tr><td class="first">capacidad: </td><td class="second">259MiB</td></tr>
                <tr><td class="first">capacidades: </td><td class="second"><dfn title="Contains boot code">boot</dfn> <dfn title="Windows FAT">fat</dfn> <dfn title="Volumen iniciado">initialized</dfn> </td></tr>
                <tr><td class="first">configuración:</td><td class="second"><table summary="configuración de volume:0"><tr><td class="sub-first"> FATs</td><td>=</td><td>2</td></tr><tr><td class="sub-first"> filesystem</td><td>=</td><td>fat</td></tr><tr><td class="sub-first"> name</td><td>=</td><td>EFI system partition</td></tr></table></td></tr>
 </tbody>             </table></div>
             </div>
<div class="indented">
                          <div class="indented">
             <table width="100%" class="node" summary="attributes of volume:1">
 <thead><tr><td class="first">id:</td><td class="second"><div class="id">volume:1</div></td></tr></thead>
 <tbody>
                <tr><td class="first">descripción: </td><td class="second">reserved partition</td></tr>
                <tr><td class="first">fabricante: </td><td class="second">Windows</td></tr>
                <tr><td class="first">id físico: </td><td class="second"><div class="id">2</div></td></tr>
                <tr><td class="first">información del bus: </td><td class="second"><div class="id">scsi@0:0.0.0,2</div></td></tr>
                <tr><td class="first">nombre lógico: </td><td class="second"><div class="id">/dev/sda2</div></td></tr>
                <tr><td class="first">serie: </td><td class="second">dccc69b2-9ec4-4ba6-b726-789fa4e3f8b9</td></tr>
                <tr><td class="first">capacidad: </td><td class="second">15MiB</td></tr>
                <tr><td class="first">capacidades: </td><td class="second"><dfn title="No filesystem">nofs</dfn> </td></tr>
                <tr><td class="first">configuración:</td><td class="second"><table summary="configuración de volume:1"><tr><td class="sub-first"> name</td><td>=</td><td>Microsoft reserved partition</td></tr></table></td></tr>
 </tbody>             </table></div>
             </div>
<div class="indented">
                          <div class="indented">
             <table width="100%" class="node" summary="attributes of volume:2">
 <thead><tr><td class="first">id:</td><td class="second"><div class="id">volume:2</div></td></tr></thead>
 <tbody>
                <tr><td class="first">descripción: </td><td class="second">Windows NTFS volumen</td></tr>
                <tr><td class="first">fabricante: </td><td class="second">Windows</td></tr>
                <tr><td class="first">id físico: </td><td class="second"><div class="id">3</div></td></tr>
                <tr><td class="first">información del bus: </td><td class="second"><div class="id">scsi@0:0.0.0,3</div></td></tr>
                <tr><td class="first">nombre lógico: </td><td class="second"><div class="id">/dev/sda3</div></td></tr>
                <tr><td class="first">versión: </td><td class="second">3.1</td></tr>
                <tr><td class="first">serie: </td><td class="second">8a886396-291e-8d47-bb77-427b389e794c</td></tr>
                <tr><td class="first">tamaño: </td><td class="second">307GiB</td></tr>
                <tr><td class="first">capacidad: </td><td class="second">307GiB</td></tr>
                <tr><td class="first">capacidades: </td><td class="second"><dfn title="Windows NTFS">ntfs</dfn> <dfn title="Volumen iniciado">initialized</dfn> </td></tr>
                <tr><td class="first">configuración:</td><td class="second"><table summary="configuración de volume:2"><tr><td class="sub-first"> clustersize</td><td>=</td><td>4096</td></tr><tr><td class="sub-first"> created</td><td>=</td><td>2017-11-14 18:41:50</td></tr><tr><td class="sub-first"> filesystem</td><td>=</td><td>ntfs</td></tr><tr><td class="sub-first"> label</td><td>=</td><td>Windows</td></tr><tr><td class="sub-first"> modified_by_chkdsk</td><td>=</td><td>true</td></tr><tr><td class="sub-first"> mounted_on_nt4</td><td>=</td><td>true</td></tr><tr><td class="sub-first"> name</td><td>=</td><td>Basic data partition</td></tr><tr><td class="sub-first"> resize_log_file</td><td>=</td><td>true</td></tr><tr><td class="sub-first"> state</td><td>=</td><td>dirty</td></tr><tr><td class="sub-first"> upgrade_on_mount</td><td>=</td><td>true</td></tr></table></td></tr>
 </tbody>             </table></div>
             </div>
<div class="indented">
                          <div class="indented">
             <table width="100%" class="node" summary="attributes of volume:3">
 <thead><tr><td class="first">id:</td><td class="second"><div class="id">volume:3</div></td></tr></thead>
 <tbody>
                <tr><td class="first">descripción: </td><td class="second">Windows NTFS volumen</td></tr>
                <tr><td class="first">fabricante: </td><td class="second">Windows</td></tr>
                <tr><td class="first">id físico: </td><td class="second"><div class="id">4</div></td></tr>
                <tr><td class="first">información del bus: </td><td class="second"><div class="id">scsi@0:0.0.0,4</div></td></tr>
                <tr><td class="first">nombre lógico: </td><td class="second"><div class="id">/dev/sda4</div></td></tr>
                <tr><td class="first">versión: </td><td class="second">3.1</td></tr>
                <tr><td class="first">serie: </td><td class="second">cc8b-213a</td></tr>
                <tr><td class="first">tamaño: </td><td class="second">972MiB</td></tr>
                <tr><td class="first">capacidad: </td><td class="second">979MiB</td></tr>
                <tr><td class="first">capacidades: </td><td class="second"><dfn title="Contains boot code">boot</dfn> <dfn title="This partition is required for the platform to function">precious</dfn> <dfn title="Read-only partition">readonly</dfn> <dfn title="Hidden partition">hidden</dfn> <dfn title="No automatic mount">nomount</dfn> <dfn title="Windows NTFS">ntfs</dfn> <dfn title="Volumen iniciado">initialized</dfn> </td></tr>
                <tr><td class="first">configuración:</td><td class="second"><table summary="configuración de volume:3"><tr><td class="sub-first"> clustersize</td><td>=</td><td>4096</td></tr><tr><td class="sub-first"> created</td><td>=</td><td>2018-04-03 05:28:44</td></tr><tr><td class="sub-first"> filesystem</td><td>=</td><td>ntfs</td></tr><tr><td class="sub-first"> label</td><td>=</td><td>Windows RE tools</td></tr><tr><td class="sub-first"> modified_by_chkdsk</td><td>=</td><td>true</td></tr><tr><td class="sub-first"> mounted_on_nt4</td><td>=</td><td>true</td></tr><tr><td class="sub-first"> name</td><td>=</td><td>Basic data partition</td></tr><tr><td class="sub-first"> resize_log_file</td><td>=</td><td>true</td></tr><tr><td class="sub-first"> state</td><td>=</td><td>dirty</td></tr><tr><td class="sub-first"> upgrade_on_mount</td><td>=</td><td>true</td></tr></table></td></tr>
 </tbody>             </table></div>
             </div>
<div class="indented">
                          <div class="indented">
             <table width="100%" class="node" summary="attributes of volume:4">
 <thead><tr><td class="first">id:</td><td class="second"><div class="id">volume:4</div></td></tr></thead>
 <tbody>
                <tr><td class="first">descripción: </td><td class="second">Windows NTFS volumen</td></tr>
                <tr><td class="first">fabricante: </td><td class="second">Windows</td></tr>
                <tr><td class="first">id físico: </td><td class="second"><div class="id">5</div></td></tr>
                <tr><td class="first">información del bus: </td><td class="second"><div class="id">scsi@0:0.0.0,5</div></td></tr>
                <tr><td class="first">nombre lógico: </td><td class="second"><div class="id">/dev/sda5</div></td></tr>
                <tr><td class="first">versión: </td><td class="second">3.1</td></tr>
                <tr><td class="first">serie: </td><td class="second">7225bb73-62b7-e847-a7f0-2f9b70c8ca1e</td></tr>
                <tr><td class="first">tamaño: </td><td class="second">14GiB</td></tr>
                <tr><td class="first">capacidad: </td><td class="second">14GiB</td></tr>
                <tr><td class="first">capacidades: </td><td class="second"><dfn title="This partition is required for the platform to function">precious</dfn> <dfn title="Read-only partition">readonly</dfn> <dfn title="Hidden partition">hidden</dfn> <dfn title="No automatic mount">nomount</dfn> <dfn title="Windows NTFS">ntfs</dfn> <dfn title="Volumen iniciado">initialized</dfn> </td></tr>
                <tr><td class="first">configuración:</td><td class="second"><table summary="configuración de volume:4"><tr><td class="sub-first"> clustersize</td><td>=</td><td>4096</td></tr><tr><td class="sub-first"> created</td><td>=</td><td>2018-04-03 05:19:26</td></tr><tr><td class="sub-first"> filesystem</td><td>=</td><td>ntfs</td></tr><tr><td class="sub-first"> label</td><td>=</td><td>RECOVERY</td></tr><tr><td class="sub-first"> modified_by_chkdsk</td><td>=</td><td>true</td></tr><tr><td class="sub-first"> mounted_on_nt4</td><td>=</td><td>true</td></tr><tr><td class="sub-first"> name</td><td>=</td><td>Basic data partition</td></tr><tr><td class="sub-first"> resize_log_file</td><td>=</td><td>true</td></tr><tr><td class="sub-first"> state</td><td>=</td><td>dirty</td></tr><tr><td class="sub-first"> upgrade_on_mount</td><td>=</td><td>true</td></tr></table></td></tr>
 </tbody>             </table></div>
             </div>
<div class="indented">
                          <div class="indented">
             <table width="100%" class="node" summary="attributes of volume:5">
 <thead><tr><td class="first">id:</td><td class="second"><div class="id">volume:5</div></td></tr></thead>
 <tbody>
                <tr><td class="first">descripción: </td><td class="second">partición EXT4</td></tr>
                <tr><td class="first">fabricante: </td><td class="second">Linux</td></tr>
                <tr><td class="first">id físico: </td><td class="second"><div class="id">6</div></td></tr>
                <tr><td class="first">información del bus: </td><td class="second"><div class="id">scsi@0:0.0.0,6</div></td></tr>
                <tr><td class="first">nombre lógico: </td><td class="second"><div class="id">/dev/sda6</div></td></tr>
                <tr><td class="first">nombre lógico: </td><td class="second"><div class="id">/</div></td></tr>
                <tr><td class="first">versión: </td><td class="second">1.0</td></tr>
                <tr><td class="first">serie: </td><td class="second">90d4f702-f99c-4a30-963f-b05789a27472</td></tr>
                <tr><td class="first">tamaño: </td><td class="second">141GiB</td></tr>
                <tr><td class="first">capacidades: </td><td class="second"><dfn title="">journaled</dfn> <dfn title="Atributos extendidos">extended_attributes</dfn> <dfn title="archivos 4GB+">large_files</dfn> <dfn title="archivos 16TB+">huge_files</dfn> <dfn title="directorios con 65000+ subdirectorios">dir_nlink</dfn> <dfn title="necesita recuperacin">recover</dfn> <dfn title="ubicacin basada en extensin">extents</dfn> <dfn title="">ext4</dfn> <dfn title="EXT2/EXT3">ext2</dfn> <dfn title="Volumen iniciado">initialized</dfn> </td></tr>
                <tr><td class="first">configuración:</td><td class="second"><table summary="configuración de volume:5"><tr><td class="sub-first"> created</td><td>=</td><td>2018-08-11 19:16:47</td></tr><tr><td class="sub-first"> filesystem</td><td>=</td><td>ext4</td></tr><tr><td class="sub-first"> lastmountpoint</td><td>=</td><td>/</td></tr><tr><td class="sub-first"> modified</td><td>=</td><td>2018-08-21 11:28:08</td></tr><tr><td class="sub-first"> mount.fstype</td><td>=</td><td>ext4</td></tr><tr><td class="sub-first"> mount.options</td><td>=</td><td>rw,relatime,errors=remount-ro,data=ordered</td></tr><tr><td class="sub-first"> mounted</td><td>=</td><td>2018-08-21 11:28:11</td></tr><tr><td class="sub-first"> state</td><td>=</td><td>mounted</td></tr></table></td></tr>
 </tbody>             </table></div>
             </div>
<div class="indented">
                          <div class="indented">
             <table width="100%" class="node" summary="attributes of volume:6">
 <thead><tr><td class="first">id:</td><td class="second"><div class="id">volume:6</div></td></tr></thead>
 <tbody>
                <tr><td class="first">descripción: </td><td class="second">Linux swap volumen</td></tr>
                <tr><td class="first">fabricante: </td><td class="second">Linux</td></tr>
                <tr><td class="first">id físico: </td><td class="second"><div class="id">7</div></td></tr>
                <tr><td class="first">información del bus: </td><td class="second"><div class="id">scsi@0:0.0.0,7</div></td></tr>
                <tr><td class="first">nombre lógico: </td><td class="second"><div class="id">/dev/sda7</div></td></tr>
                <tr><td class="first">versión: </td><td class="second">1</td></tr>
                <tr><td class="first">serie: </td><td class="second">a00e9e9b-a729-4a53-a876-dfbe86b15d37</td></tr>
                <tr><td class="first">tamaño: </td><td class="second">976MiB</td></tr>
                <tr><td class="first">capacidad: </td><td class="second">976MiB</td></tr>
                <tr><td class="first">capacidades: </td><td class="second"><dfn title="No filesystem">nofs</dfn> <dfn title="Linux swap">swap</dfn> <dfn title="Volumen iniciado">initialized</dfn> </td></tr>
                <tr><td class="first">configuración:</td><td class="second"><table summary="configuración de volume:6"><tr><td class="sub-first"> filesystem</td><td>=</td><td>swap</td></tr><tr><td class="sub-first"> pagesize</td><td>=</td><td>4095</td></tr></table></td></tr>
 </tbody>             </table></div>
             </div>
          </div>
       </div>
    </div>
</body>
</html>
