-[0000:00]-+-00.0  Intel Corporation Device 2280
           +-02.0  Intel Corporation Device 22b1
           +-0b.0  Intel Corporation Device 22dc
           +-13.0  Intel Corporation Device 22a3
           +-14.0  Intel Corporation Device 22b5
           +-1a.0  Intel Corporation Device 2298
           +-1b.0  Intel Corporation Device 2284
           +-1c.0-[01]----00.0  Realtek Semiconductor Co., Ltd. RTL8111/8168/8411 PCI Express Gigabit Ethernet Controller
           +-1c.3-[02]----00.0  Realtek Semiconductor Co., Ltd. RTL8188EE Wireless Network Adapter
           +-1f.0  Intel Corporation Device 229c
           \-1f.3  Intel Corporation Device 2292

